[gd_scene load_steps=5 format=2]

[ext_resource path="res://maps/interier_sl1_sf.tmx" type="PackedScene" id=1]
[ext_resource path="res://objects/Player_2.tscn" type="PackedScene" id=2]

[sub_resource type="GDScript" id=2]
script/source = "extends Area2D



func _on_ff_body_entered(body):
	if body.name == \"Player\":
		get_tree().change_scene(\"res://objects/interiers/interier_sl1_ff.tscn\")
"

[sub_resource type="RectangleShape2D" id=1]
extents = Vector2( 37.8202, 14.969 )

[node name="interier_sl1_sf" type="Node2D"]

[node name="interier_sl1_sf" parent="." instance=ExtResource( 1 )]
scale = Vector2( 5, 5 )

[node name="Player" parent="." instance=ExtResource( 2 )]
position = Vector2( 625.842, 1009.87 )

[node name="Triggers" type="Node2D" parent="."]

[node name="ff" type="Area2D" parent="Triggers"]
editor/display_folded = true
position = Vector2( 540.205, 920.157 )
script = SubResource( 2 )

[node name="CollisionShape2D" type="CollisionShape2D" parent="Triggers/ff"]
position = Vector2( 2.58472, -15.5083 )
shape = SubResource( 1 )
[connection signal="body_entered" from="Triggers/ff" to="Triggers/ff" method="_on_ff_body_entered"]
